R Notebook
…
Again, KMeans doesn’t seem to have any perceptible effect.

require(topicmodels)

?LDA

ned_tfidf

# A tibble: 293,913 x 8
   post_id word             n     tf   idf tf_idf post_name Date      
   <chr>   <chr>        <int>  <dbl> <dbl>  <dbl> <chr>     <date>    
 1 100     blitz            2 0.0426  7.07  0.301 173951    2008-04-02
 2 100     distracted       2 0.0426  4.99  0.212 173951    2008-04-02
 3 100     concentrate      2 0.0426  4.54  0.193 173951    2008-04-02
 4 100     chess            2 0.0426  4.32  0.184 173951    2008-04-02
 5 100     colleagues.i     1 0.0213  7.76  0.165 173951    2008-04-02
 6 100     overhear         1 0.0213  7.07  0.150 173951    2008-04-02
 7 100     multitasker      1 0.0213  6.66  0.142 173951    2008-04-02
 8 100     restless         1 0.0213  6.66  0.142 173951    2008-04-02
 9 100     screens          1 0.0213  6.66  0.142 173951    2008-04-02
10 100     blindfold        1 0.0213  6.37  0.136 173951    2008-04-02
# ... with 293,903 more rows
…
head(sentiments)

# A tibble: 6 x 4
  word      sentiment lexicon score
  <chr>     <chr>     <chr>   <int>
1 abacus    trust     nrc        NA
2 abandon   fear      nrc        NA
3 abandon   negative  nrc        NA
4 abandon   sadness   nrc        NA
5 abandoned anger     nrc        NA
6 abandoned fear      nrc        NA

get_sentiments('afinn')

# A tibble: 2,476 x 2
   word       score
   <chr>      <int>
 1 abandon       -2
 2 abandoned     -2
 3 abandons      -2
 4 abducted      -2
 5 abduction     -2
 6 abductions    -2
 7 abhor         -3
 8 abhorred      -3
 9 abhorrent     -3
10 abhors        -3
# ... with 2,466 more rows

get_sentiments('bing')

# A tibble: 6,788 x 2
   word        sentiment
   <chr>       <chr>    
 1 2-faced     negative 
 2 2-faces     negative 
 3 a+          positive 
 4 abnormal    negative 
 5 abolish     negative 
 6 abominable  negative 
 7 abominably  negative 
 8 abominate   negative 
 9 abomination negative 
10 abort       negative 
# ... with 6,778 more rows

get_sentiments('nrc')

# A tibble: 13,901 x 2
   word        sentiment
   <chr>       <chr>    
 1 abacus      trust    
 2 abandon     fear     
 3 abandon     negative 
 4 abandon     sadness  
 5 abandoned   anger    
 6 abandoned   fear     
 7 abandoned   negative 
 8 abandoned   sadness  
 9 abandonment anger    
10 abandonment fear     
# ... with 13,891 more rows

get_sentiments('loughran')

# A tibble: 4,149 x 2
   word         sentiment
   <chr>        <chr>    
 1 abandon      negative 
 2 abandoned    negative 
 3 abandoning   negative 
 4 abandonment  negative 
 5 abandonments negative 
 6 abandons     negative 
 7 abdicated    negative 
 8 abdicates    negative 
 9 abdicating   negative 
10 abdication   negative 
# ... with 4,139 more rows
…
